<?xml version="1.0" encoding="UTF-8" standalone="no"?>
<!-- Generator: Adobe Illustrator 17.0.0, SVG Export Plug-In . SVG Version: 6.00 Build 0)  -->

<svg
   xmlns:dc="http://purl.org/dc/elements/1.1/"
   xmlns:cc="http://creativecommons.org/ns#"
   xmlns:rdf="http://www.w3.org/1999/02/22-rdf-syntax-ns#"
   xmlns:svg="http://www.w3.org/2000/svg"
   xmlns="http://www.w3.org/2000/svg"
   xmlns:sodipodi="http://sodipodi.sourceforge.net/DTD/sodipodi-0.dtd"
   xmlns:inkscape="http://www.inkscape.org/namespaces/inkscape"
   version="1.1"
   id="Capa_1"
   x="0px"
   y="0px"
   width="14.75"
   height="8"
   viewBox="0 0 14.75 8"
   enable-background="new 0 0 63.75 26"
   xml:space="preserve"
   sodipodi:docname="barras.svg"
   inkscape:version="0.92.4 5da689c313, 2019-01-14"><metadata
   id="metadata53"><rdf:RDF><cc:Work
       rdf:about=""><dc:format>image/svg+xml</dc:format><dc:type
         rdf:resource="http://purl.org/dc/dcmitype/StillImage" /><dc:title></dc:title></cc:Work></rdf:RDF></metadata><defs
   id="defs51"><clipPath
     clipPathUnits="userSpaceOnUse"
     id="clipPath854"><path
       style="fill:none;stroke:#000000;stroke-width:0.92543066px;stroke-linecap:butt;stroke-linejoin:miter;stroke-opacity:1"
       d="m 12.253155,18.761835 0.111682,-4.137897 -14.6548601,-0.04526 -0.044409,4.231362 z"
       id="path856"
       inkscape:connector-curvature="0" /></clipPath><clipPath
     clipPathUnits="userSpaceOnUse"
     id="clipPath858"><path
       style="fill:none;stroke:#000000;stroke-width:1.09747505px;stroke-linecap:butt;stroke-linejoin:miter;stroke-opacity:1"
       d="m 12.058337,17.27356 0.157067,-4.137897 -20.6102481,-0.04525 -0.062455,4.231362 z"
       id="path860"
       inkscape:connector-curvature="0" /></clipPath><clipPath
     clipPathUnits="userSpaceOnUse"
     id="clipPath862"><path
       style="fill:none;stroke:#000000;stroke-width:0.81276435px;stroke-linecap:butt;stroke-linejoin:miter;stroke-opacity:1"
       d="m 12.438,15.667 0.08614,-4.137897 -11.3037681,-0.04525 -0.034254,4.231362 z"
       id="path864"
       inkscape:connector-curvature="0" /></clipPath><clipPath
     clipPathUnits="userSpaceOnUse"
     id="clipPath868"><path
       style="fill:none;stroke:#000000;stroke-width:0.92543066px;stroke-linecap:butt;stroke-linejoin:miter;stroke-opacity:1"
       d="m 12.253155,18.761835 -0.06595,-4.11527 H -2.423249 l -0.044409,4.186108 z"
       id="path870"
       inkscape:connector-curvature="0" /></clipPath><clipPath
     clipPathUnits="userSpaceOnUse"
     id="clipPath872"><path
       style="fill:none;stroke:#000000;stroke-width:1.09747505px;stroke-linecap:butt;stroke-linejoin:miter;stroke-opacity:1"
       d="m 12.058337,17.27356 -0.09275,-4.115269 H -8.5822099 l -0.062456,4.186107 z"
       id="path874"
       inkscape:connector-curvature="0" /></clipPath><clipPath
     clipPathUnits="userSpaceOnUse"
     id="clipPath876"><path
       style="fill:none;stroke:#000000;stroke-width:0.81276435px;stroke-linecap:butt;stroke-linejoin:miter;stroke-opacity:1"
       d="M 12.438,15.667 12.38713,11.551731 H 1.1176144 l -0.034254,4.186107 z"
       id="path878"
       inkscape:connector-curvature="0" /></clipPath></defs><sodipodi:namedview
   pagecolor="#ffffff"
   bordercolor="#666666"
   borderopacity="1"
   objecttolerance="10"
   gridtolerance="10"
   guidetolerance="10"
   inkscape:pageopacity="0"
   inkscape:pageshadow="2"
   inkscape:window-width="1366"
   inkscape:window-height="728"
   id="namedview49"
   showgrid="false"
   inkscape:zoom="29.193805"
   inkscape:cx="8.3671832"
   inkscape:cy="3.790099"
   inkscape:window-x="0"
   inkscape:window-y="0"
   inkscape:window-maximized="1"
   inkscape:current-layer="g38" />
<g
   id="g46"
   transform="translate(0,-18)">
	<g
   id="g30">
		
		
		
		
		
		
		
	</g>
	<g
   id="g44"
   transform="translate(-0.77507599,9.3009119)">
		
		<g
   id="g38"
   transform="matrix(1.1667665,0,0,1.3082845,-0.1902806,-4.3160869)"
   clip-path="url(#clipPath876)">
			<path
   d="M 12.438,15.667 H 1.679 c -0.297,0 -0.538,-0.351 -0.538,-0.5 0,-0.149 0.241,-0.5 0.538,-0.5 h 10.758 c 0.297,0 0.538,0.351 0.538,0.5 0.001,0.148 -0.24,0.5 -0.537,0.5 z"
   id="path36"
   inkscape:connector-curvature="0"
   style="fill:#a9a9a9;fill-opacity:1" />
		</g>
		
	<g
   transform="matrix(0.72729491,0,0,1.205523,5.5177406,-5.6519529)"
   id="g830"
   clip-path="url(#clipPath872)">
			<path
   style="fill:#a9a9a9;fill-opacity:1"
   inkscape:connector-curvature="0"
   id="path828"
   d="M 12.438,15.667 H 1.679 c -0.297,0 -0.538,-0.351 -0.538,-0.5 0,-0.149 0.241,-0.5 0.538,-0.5 h 10.758 c 0.297,0 0.538,0.351 0.538,0.5 0.001,0.148 -0.24,0.5 -0.537,0.5 z" />
		</g><g
   transform="matrix(0.94395551,0,0,1.2740307,2.8240356,-9.6633012)"
   id="g830-3"
   clip-path="url(#clipPath868)"><path
     style="fill:#a9a9a9;fill-opacity:1"
     inkscape:connector-curvature="0"
     id="path828-6"
     d="M 12.438,15.667 H 1.679 c -0.297,0 -0.538,-0.351 -0.538,-0.5 0,-0.149 0.241,-0.5 0.538,-0.5 h 10.758 c 0.297,0 0.538,0.351 0.538,0.5 0.001,0.148 -0.24,0.5 -0.537,0.5 z" /></g></g>
</g>
</svg>