<?xml version="1.0" encoding="UTF-8" standalone="no"?>
<svg
   xmlns:dc="http://purl.org/dc/elements/1.1/"
   xmlns:cc="http://creativecommons.org/ns#"
   xmlns:rdf="http://www.w3.org/1999/02/22-rdf-syntax-ns#"
   xmlns:svg="http://www.w3.org/2000/svg"
   xmlns="http://www.w3.org/2000/svg"
   xmlns:sodipodi="http://sodipodi.sourceforge.net/DTD/sodipodi-0.dtd"
   xmlns:inkscape="http://www.inkscape.org/namespaces/inkscape"
   inkscape:version="1.0beta1 (d565813f7b, 2019-09-28)"
   sodipodi:docname="calendario.svg"
   xml:space="preserve"
   enable-background="new 0 0 46.333 47.933"
   viewBox="0 0 46.333 47.933"
   height="47.933px"
   width="46.333px"
   y="0px"
   x="0px"
   id="Capa_1"
   version="1.1"><metadata
   id="metadata30">
  <rdf:RDF>
    <cc:Work
       rdf:about="">
      <dc:format>image/svg+xml</dc:format>
      <dc:type
         rdf:resource="http://purl.org/dc/dcmitype/StillImage" />
    </cc:Work>
  </rdf:RDF>
</metadata>
<defs
   id="defs28" />
<sodipodi:namedview
   inkscape:current-layer="g23"
   inkscape:window-maximized="1"
   inkscape:window-y="27"
   inkscape:window-x="50"
   inkscape:cy="23.966499"
   inkscape:cx="23.1665"
   inkscape:zoom="17.461874"
   showgrid="false"
   id="namedview26"
   inkscape:window-height="1025"
   inkscape:window-width="1870"
   inkscape:pageshadow="2"
   inkscape:pageopacity="0"
   guidetolerance="10"
   gridtolerance="10"
   objecttolerance="10"
   borderopacity="1"
   inkscape:document-rotation="0"
   bordercolor="#666666"
   pagecolor="#ffffff" />

<g
   id="g23">
	<path
   style="fill:#00802c;fill-opacity:1"
   id="path2"
   d="M24.429,23.991c0-0.478-0.004-0.957,0.001-1.435c0.007-0.757,0.529-1.3,1.283-1.31   c0.982-0.012,1.965-0.011,2.947-0.001c0.744,0.008,1.281,0.53,1.294,1.275c0.018,0.982,0.016,1.965,0.002,2.947   c-0.011,0.758-0.531,1.284-1.299,1.3c-0.973,0.021-1.948,0.02-2.921,0.001c-0.804-0.016-1.303-0.557-1.306-1.368   C24.428,24.931,24.429,24.461,24.429,23.991z"
   fill="#5D5D5D" />

	<path
   style="fill:#00802c;fill-opacity:1"
   id="path4"
   d="M21.147,32.47c0,0.47,0.003,0.94-0.001,1.409c-0.005,0.791-0.508,1.334-1.299,1.352   c-0.973,0.021-1.948,0.02-2.921,0.001c-0.801-0.016-1.309-0.561-1.311-1.368c-0.003-0.931-0.004-1.862,0-2.793   c0.004-0.83,0.533-1.36,1.364-1.364c0.94-0.005,1.879-0.005,2.819,0c0.814,0.005,1.343,0.54,1.348,1.353   C21.15,31.53,21.147,32,21.147,32.47z"
   fill="#5D5D5D" />

	<path
   style="fill:#00802c;fill-opacity:1"
   id="path6"
   d="M24.43,32.458c0-0.487-0.005-0.974,0.001-1.461c0.009-0.728,0.527-1.274,1.253-1.285   c0.999-0.016,1.999-0.015,2.998-0.001c0.718,0.01,1.253,0.523,1.269,1.244c0.023,1.007,0.024,2.016,0,3.023   c-0.018,0.733-0.542,1.237-1.291,1.253c-0.982,0.021-1.965,0.023-2.947-0.001c-0.792-0.02-1.281-0.563-1.284-1.363   C24.428,33.398,24.429,32.928,24.43,32.458z"
   fill="#5D5D5D" />

	<path
   style="fill:#00802c;fill-opacity:1"
   id="path8"
   d="M12.333,32.475c0,0.47,0.003,0.94-0.001,1.409c-0.007,0.797-0.503,1.331-1.299,1.347   c-0.973,0.02-1.948,0.02-2.921,0.001c-0.791-0.016-1.297-0.552-1.304-1.347c-0.007-0.939-0.007-1.879,0-2.818   c0.007-0.836,0.532-1.356,1.366-1.359c0.931-0.004,1.862-0.004,2.793,0c0.835,0.003,1.359,0.528,1.364,1.359   C12.335,31.535,12.333,32.005,12.333,32.475z"
   fill="#5D5D5D" />

	<path
   style="fill:#00802c;fill-opacity:1"
   id="path10"
   d="M9.657,43.718c-0.47,0-0.94,0.004-1.41-0.001c-0.836-0.009-1.355-0.533-1.357-1.367   c-0.002-0.931-0.003-1.862,0-2.793c0.002-0.789,0.479-1.326,1.265-1.349c0.999-0.029,1.999-0.029,2.998-0.001   c0.789,0.022,1.265,0.555,1.268,1.347c0.003,0.94,0.004,1.879,0,2.819c-0.004,0.801-0.529,1.331-1.329,1.344   C10.614,43.723,10.136,43.717,9.657,43.718z"
   fill="#5D5D5D" />

	<path
   style="fill:#00802c;fill-opacity:1"
   id="path12"
   d="M18.474,43.717c-0.478,0-0.957,0.006-1.435-0.001c-0.809-0.012-1.328-0.534-1.331-1.338   c-0.003-0.948-0.003-1.896,0-2.844c0.003-0.764,0.471-1.3,1.231-1.323c1.024-0.031,2.05-0.029,3.073,0.002   c0.711,0.022,1.196,0.522,1.214,1.235c0.026,1.007,0.027,2.016,0,3.023c-0.019,0.74-0.552,1.23-1.294,1.245   C19.448,43.725,18.961,43.717,18.474,43.717z"
   fill="#5D5D5D" />

	<path
   style="fill:#00802c;fill-opacity:1"
   id="path14"
   d="M33.242,24.014c0-0.487-0.006-0.974,0.002-1.46c0.011-0.773,0.535-1.301,1.308-1.308   c0.965-0.009,1.93-0.008,2.895,0c0.765,0.006,1.297,0.516,1.31,1.279c0.017,0.99,0.017,1.981,0,2.972   c-0.013,0.748-0.529,1.257-1.294,1.273c-0.973,0.019-1.947,0.019-2.921,0c-0.795-0.016-1.292-0.548-1.3-1.346   C33.238,24.953,33.242,24.483,33.242,24.014z"
   fill="#5D5D5D" />

	<path
   style="fill:#00802c;fill-opacity:1"
   id="path16"
   d="M33.242,32.479c0-0.487-0.006-0.974,0.001-1.46c0.011-0.774,0.534-1.303,1.306-1.31   c0.965-0.009,1.93-0.008,2.895,0c0.766,0.006,1.298,0.515,1.312,1.277c0.017,0.99,0.017,1.981,0,2.972   c-0.013,0.749-0.527,1.259-1.292,1.275c-0.973,0.02-1.947,0.019-2.921,0c-0.795-0.015-1.294-0.547-1.302-1.344   C33.238,33.419,33.242,32.949,33.242,32.479z"
   fill="#5D5D5D" />

	<g
   id="surface1_4_">
		<g
   id="g20">
			<path
   style="fill:#00802c;fill-opacity:1"
   id="path18"
   d="M40.315,7.47h-4V4.297c0.231-1.398-0.716-2.712-2.111-2.943c-1.392-0.228-2.712,0.714-2.94,2.108     c-0.046,0.274-0.046,0.555,0,0.834V7.47H14.566V4.297c0.228-1.395-0.714-2.712-2.108-2.94c-1.395-0.231-2.712,0.711-2.94,2.106     c-0.048,0.279-0.048,0.561,0,0.834V7.47h-4c-2.13-0.196-4.018,1.373-4.214,3.503c-0.019,0.225-0.019,0.448-0.003,0.673v31.219     c-0.199,2.13,1.371,4.018,3.501,4.217c0.236,0.019,0.477,0.019,0.716,0h34.798c2.127,0.193,4.016-1.371,4.214-3.501     c0.021-0.239,0.021-0.477,0-0.716V11.647c0.177-2.127-1.403-4.002-3.536-4.177C40.769,7.446,40.541,7.446,40.315,7.47z      M32.971,4.297c-0.131-0.453,0.129-0.928,0.579-1.06c0.453-0.131,0.928,0.129,1.06,0.579c0.046,0.156,0.046,0.322,0,0.48v8.061     c-0.131,0.448-0.606,0.711-1.06,0.579c-0.279-0.083-0.496-0.303-0.579-0.579V4.297z M11.221,4.297     c-0.131-0.453,0.131-0.928,0.579-1.06c0.456-0.131,0.928,0.129,1.057,0.579c0.046,0.156,0.046,0.322,0,0.48v8.061     c-0.129,0.448-0.601,0.711-1.057,0.579c-0.276-0.083-0.496-0.303-0.579-0.579V4.297z M42.781,42.901     c0,1.703-0.853,2.505-2.508,2.505H5.518c-1.706,0-2.511-0.85-2.511-2.505V19.22h39.814L42.781,42.901z M42.781,17.517H3.007     v-5.869c0-1.703,0.853-2.505,2.511-2.505h4v3.173c0.228,1.392,1.545,2.336,2.94,2.108c1.081-0.18,1.931-1.027,2.108-2.108V9.174     h16.699v3.173c0.233,1.395,1.548,2.336,2.94,2.108c1.084-0.177,1.931-1.025,2.111-2.108V9.174h4c1.703,0,2.505,0.856,2.505,2.508     L42.781,17.517z"
   fill="#5D5D5D" />

		</g>

	</g>

</g>

</svg>
