<?xml version="1.0" encoding="UTF-8" standalone="no"?>
<!-- Generator: Adobe Illustrator 17.0.0, SVG Export Plug-In . SVG Version: 6.00 Build 0)  -->

<svg
   xmlns:dc="http://purl.org/dc/elements/1.1/"
   xmlns:cc="http://creativecommons.org/ns#"
   xmlns:rdf="http://www.w3.org/1999/02/22-rdf-syntax-ns#"
   xmlns:svg="http://www.w3.org/2000/svg"
   xmlns="http://www.w3.org/2000/svg"
   xmlns:sodipodi="http://sodipodi.sourceforge.net/DTD/sodipodi-0.dtd"
   xmlns:inkscape="http://www.inkscape.org/namespaces/inkscape"
   version="1.1"
   id="Capa_1"
   x="0px"
   y="0px"
   width="44.5px"
   height="44.5px"
   viewBox="0 0 44.5 44.5"
   enable-background="new 0 0 44.5 44.5"
   xml:space="preserve"
   sodipodi:docname="calendario-solid.svg"
   inkscape:version="0.92.4 5da689c313, 2019-01-14"><metadata
   id="metadata36"><rdf:RDF><cc:Work
       rdf:about=""><dc:format>image/svg+xml</dc:format><dc:type
         rdf:resource="http://purl.org/dc/dcmitype/StillImage" /></cc:Work></rdf:RDF></metadata><defs
   id="defs34" /><sodipodi:namedview
   pagecolor="#ffffff"
   bordercolor="#666666"
   borderopacity="1"
   objecttolerance="10"
   gridtolerance="10"
   guidetolerance="10"
   inkscape:pageopacity="0"
   inkscape:pageshadow="2"
   inkscape:window-width="1870"
   inkscape:window-height="1025"
   id="namedview32"
   showgrid="false"
   inkscape:zoom="5.3033708"
   inkscape:cx="22.25"
   inkscape:cy="22.25"
   inkscape:window-x="50"
   inkscape:window-y="27"
   inkscape:window-maximized="1"
   inkscape:current-layer="Capa_1" />
<g
   id="g29"
   transform="matrix(1.3970517,0,0,1.3970517,-9.3258687,-6.5713686)">
	<polygon
   points="8.5,36 8.5,17 37.5,17 37,36 "
   id="polygon2"
   style="fill:#5d5d5d" />
	<path
   d="m 23.778,20.654 c 0,-0.337 -0.003,-0.674 0.001,-1.011 0.005,-0.534 0.372,-0.916 0.904,-0.923 0.692,-0.009 1.384,-0.008 2.077,0 0.524,0.006 0.902,0.374 0.912,0.898 0.012,0.692 0.011,1.384 10e-4,2.076 -0.008,0.534 -0.374,0.905 -0.915,0.916 -0.686,0.014 -1.372,0.014 -2.058,0 -0.567,-0.011 -0.918,-0.393 -0.92,-0.964 -0.003,-0.33 -0.002,-0.661 -0.002,-0.992 z"
   id="path4"
   inkscape:connector-curvature="0"
   style="fill:#ffffff" />
	<path
   d="m 21.465,26.629 c 0,0.331 0.002,0.662 0,0.993 -0.004,0.557 -0.358,0.94 -0.915,0.953 -0.686,0.015 -1.373,0.014 -2.058,0.001 -0.565,-0.011 -0.922,-0.396 -0.924,-0.964 -0.002,-0.656 -0.003,-1.312 0,-1.968 0.003,-0.585 0.376,-0.958 0.961,-0.961 0.662,-0.003 1.324,-0.004 1.986,0 0.574,0.004 0.946,0.38 0.95,0.953 0.001,0.33 0,0.661 0,0.993 z"
   id="path6"
   inkscape:connector-curvature="0"
   style="fill:#ffffff" />
	<path
   d="m 23.778,26.62 c 0,-0.343 -0.003,-0.686 0.001,-1.029 0.006,-0.513 0.371,-0.898 0.883,-0.906 0.704,-0.011 1.408,-0.01 2.113,-10e-4 0.506,0.007 0.883,0.369 0.894,0.877 0.016,0.71 0.017,1.421 0,2.13 -0.012,0.516 -0.382,0.872 -0.91,0.883 -0.692,0.015 -1.385,0.016 -2.076,-0.001 -0.558,-0.014 -0.903,-0.397 -0.905,-0.96 -10e-4,-0.331 0,-0.662 0,-0.993 z"
   id="path8"
   inkscape:connector-curvature="0"
   style="fill:#ffffff" />
	<path
   d="m 15.253,26.632 c 0,0.331 0.002,0.662 -10e-4,0.993 -0.005,0.562 -0.355,0.938 -0.915,0.95 -0.686,0.014 -1.372,0.014 -2.058,0 -0.557,-0.011 -0.914,-0.389 -0.919,-0.949 -0.005,-0.662 -0.005,-1.324 0,-1.986 0.005,-0.589 0.375,-0.955 0.963,-0.958 0.656,-0.003 1.312,-0.003 1.968,0 0.588,0.002 0.958,0.372 0.961,0.957 0.003,0.331 10e-4,0.662 10e-4,0.993 z"
   id="path10"
   inkscape:connector-curvature="0"
   style="fill:#ffffff" />
	<path
   d="m 13.368,34.555 c -0.331,0 -0.662,0.003 -0.993,-10e-4 -0.589,-0.007 -0.955,-0.375 -0.957,-0.963 -0.002,-0.656 -0.002,-1.312 0,-1.968 0.002,-0.556 0.338,-0.935 0.892,-0.951 0.704,-0.02 1.409,-0.02 2.112,-0.001 0.556,0.016 0.892,0.391 0.894,0.949 0.002,0.662 0.003,1.324 0,1.987 -0.003,0.565 -0.373,0.938 -0.936,0.947 -0.338,0.005 -0.675,10e-4 -1.012,10e-4 z"
   id="path12"
   inkscape:connector-curvature="0"
   style="fill:#ffffff" />
	<path
   d="m 19.581,34.555 c -0.337,0 -0.674,0.004 -1.011,-10e-4 -0.57,-0.008 -0.936,-0.376 -0.938,-0.943 -0.002,-0.668 -0.002,-1.336 0,-2.004 0.002,-0.539 0.332,-0.916 0.868,-0.933 0.721,-0.022 1.444,-0.021 2.166,0.001 0.501,0.015 0.843,0.368 0.856,0.871 0.018,0.71 0.019,1.421 0,2.13 -0.014,0.521 -0.389,0.867 -0.912,0.877 -0.343,0.007 -0.686,0.001 -1.029,0.002 z"
   id="path14"
   inkscape:connector-curvature="0"
   style="fill:#ffffff" />
	<path
   d="m 29.988,20.67 c 0,-0.343 -0.004,-0.686 0.001,-1.029 0.008,-0.545 0.377,-0.917 0.922,-0.922 0.68,-0.006 1.36,-0.006 2.04,0 0.539,0.005 0.914,0.364 0.923,0.901 0.012,0.698 0.012,1.396 0,2.094 -0.009,0.527 -0.373,0.886 -0.912,0.897 -0.686,0.014 -1.372,0.014 -2.058,0 -0.56,-0.011 -0.91,-0.386 -0.916,-0.948 -0.003,-0.331 -0.001,-0.662 0,-0.993 z"
   id="path16"
   inkscape:connector-curvature="0"
   style="fill:#ffffff" />
	<path
   d="m 29.988,26.635 c 0,-0.343 -0.004,-0.686 0.001,-1.029 0.008,-0.545 0.376,-0.918 0.92,-0.923 0.68,-0.006 1.36,-0.006 2.04,0 0.54,0.004 0.915,0.363 0.924,0.9 0.012,0.698 0.012,1.396 0,2.094 -0.009,0.528 -0.371,0.887 -0.91,0.898 -0.686,0.014 -1.372,0.014 -2.058,0 -0.56,-0.011 -0.912,-0.386 -0.917,-0.947 -0.003,-0.331 -0.001,-0.662 0,-0.993 z"
   id="path18"
   inkscape:connector-curvature="0"
   style="fill:#ffffff" />
	<g
   id="surface1_5_">
		<g
   id="g22">
			<path
   d="M 34.972,9.012 H 32.154 V 6.776 C 32.317,5.791 31.649,4.865 30.666,4.702 29.685,4.541 28.755,5.205 28.594,6.188 c -0.032,0.193 -0.032,0.391 0,0.588 V 9.012 H 16.827 V 6.776 C 16.988,5.793 16.324,4.865 15.341,4.704 14.358,4.541 13.43,5.205 13.269,6.188 c -0.034,0.197 -0.034,0.395 0,0.588 V 9.012 H 10.451 C 8.95,8.874 7.619,9.98 7.481,11.481 7.468,11.64 7.468,11.797 7.479,11.955 v 22 c -0.14,1.501 0.966,2.832 2.467,2.972 0.166,0.013 0.336,0.013 0.505,0 h 24.521 c 1.499,0.136 2.83,-0.966 2.97,-2.467 0.015,-0.168 0.015,-0.336 0,-0.505 v -22 c 0.125,-1.499 -0.989,-2.82 -2.491,-2.943 -0.159,-0.017 -0.32,-0.017 -0.479,0 z M 29.797,6.776 c -0.093,-0.319 0.091,-0.654 0.408,-0.747 0.319,-0.093 0.654,0.091 0.747,0.408 0.032,0.11 0.032,0.227 0,0.338 v 5.68 c -0.093,0.316 -0.427,0.501 -0.747,0.408 -0.197,-0.059 -0.35,-0.214 -0.408,-0.408 z m -15.327,0 c -0.093,-0.319 0.093,-0.654 0.408,-0.747 0.321,-0.093 0.654,0.091 0.745,0.408 0.032,0.11 0.032,0.227 0,0.338 v 5.68 c -0.091,0.316 -0.423,0.501 -0.745,0.408 -0.195,-0.059 -0.35,-0.214 -0.408,-0.408 z M 36.71,33.98 c 0,1.2 -0.601,1.766 -1.767,1.766 H 10.451 c -1.202,0 -1.769,-0.599 -1.769,-1.766 V 17.292 h 28.056 z m 0,-17.889 H 8.682 v -4.136 c 0,-1.2 0.601,-1.766 1.769,-1.766 h 2.818 v 2.236 c 0.161,0.981 1.089,1.646 2.072,1.486 0.762,-0.127 1.361,-0.724 1.486,-1.486 v -2.214 h 11.767 v 2.236 c 0.164,0.983 1.091,1.646 2.072,1.486 0.764,-0.125 1.361,-0.722 1.488,-1.486 v -2.236 h 2.818 c 1.2,0 1.766,0.603 1.766,1.767 z"
   id="path20"
   inkscape:connector-curvature="0"
   style="fill:#5d5d5d" />
		</g>
	</g>
	<path
   d="M 37.333,13.333 C 37.335,17.667 37.563,17 32.5,17 L 11.417,16.417 c -1.657,0 -3.458,0.407 -3.458,-1.25 L 8.5,13 c 0,-1.657 -0.314,-3 1.343,-3 l 3.688,-0.188 c 0,0 0.469,3.781 1.531,3.875 1.062,0.094 1.312,-4.062 1.312,-4.062 l 12.344,0.188 c 0,0 0.812,3.781 1.562,3.719 0.75,-0.062 1.653,-3.438 1.653,-3.438 1.657,0 4.774,-0.917 4.774,0.74 z"
   id="path25"
   inkscape:connector-curvature="0"
   style="fill:#5d5d5d" />
	<rect
   x="8.5"
   y="16"
   width="27"
   height="1"
   id="rect27"
   style="fill:#ffffff" />
</g>
<path
   style="fill:#19802c;stroke-width:0.47139829;stroke-linecap:round;stroke-linejoin:round;stroke-opacity:0.97520662;fill-opacity:1"
   d="M 3.2886179,44.487244 C 2.1991418,43.944335 1.3918338,42.844232 1.2241055,41.673975 1.1629768,41.247472 1.1383138,33.67942 1.169299,24.856078 L 1.2256356,8.8136389 1.7913136,7.9003786 C 2.1627834,7.3006581 2.6423018,6.836436 3.188026,6.5482201 3.9422486,6.1498891 4.2603163,6.109322 6.6292336,6.109322 H 9.2394068 V 4.1233928 c 0,-2.3155201 0.2524002,-3.1083098 1.1671492,-3.66601678 0.795512,-0.48501054 1.772732,-0.48501054 2.568244,0 0.914749,0.55770698 1.167149,1.35049668 1.167149,3.66601678 V 6.109322 h 8.29661 8.29661 V 3.8438412 1.5783603 L 31.3481,0.90953657 c 0.755397,-0.82427972 1.819162,-1.0398612 2.810306,-0.56953287 1.083194,0.51400934 1.290747,1.0901299 1.290747,3.5828395 V 6.109322 h 2.551607 c 3.358079,0 4.312772,0.3882525 5.197675,2.1137806 0.344642,0.6720378 0.358768,1.3535727 0.358768,17.3078294 0,15.954257 -0.01412,16.635792 -0.358768,17.30783 -0.453613,0.88453 -1.058623,1.450502 -1.947601,1.821941 -0.61403,0.25656 -2.894404,0.291839 -18.863476,0.291839 H 4.2223503 Z m 8.3601041,-3.03374 c 0.390975,-0.273851 0.419075,-0.436255 0.419075,-2.422049 0,-2.807029 -0.03831,-2.846921 -2.7341106,-2.846921 -2.6827852,0 -2.7341101,0.05187 -2.7341101,2.763335 0,2.746142 0.050995,2.799165 2.6921546,2.799165 1.4487891,0 2.0436911,-0.07409 2.3569911,-0.29353 z m 8.726221,-0.05421 c 0.398504,-0.322687 0.429435,-0.493212 0.429435,-2.367466 0,-2.750364 -0.07983,-2.831585 -2.783229,-2.831585 -2.709032,0 -2.747844,0.03881 -2.747844,2.747622 0,2.749653 0.04799,2.799165 2.713221,2.799165 1.622859,0 2.032666,-0.05966 2.388417,-0.347736 z m -8.769974,-8.411703 c 0.430243,-0.430241 0.462828,-0.596786 0.462828,-2.365561 0,-1.768775 -0.03259,-1.93532 -0.462828,-2.365562 -0.429281,-0.429281 -0.598605,-0.462828 -2.3361019,-0.462828 -2.6896814,0 -2.7635705,0.07562 -2.7635705,2.82839 0,2.752768 0.073889,2.82839 2.7635705,2.82839 1.7374969,0 1.9068209,-0.03355 2.3361019,-0.462829 z m 8.673728,0 c 0.430243,-0.430241 0.462828,-0.596786 0.462828,-2.365561 0,-1.787005 -0.02918,-1.931915 -0.479751,-2.382487 -0.462461,-0.46246 -0.550574,-0.477441 -2.444971,-0.415686 -2.633401,0.08584 -2.637778,0.09052 -2.637778,2.821567 0,2.725995 0.07784,2.804996 2.763571,2.804996 1.737497,0 1.906821,-0.03355 2.336101,-0.462829 z m 8.673729,0 c 0.430243,-0.430241 0.462828,-0.596786 0.462828,-2.365561 0,-1.768775 -0.03259,-1.93532 -0.462828,-2.365562 -0.42928,-0.429281 -0.598604,-0.462828 -2.336101,-0.462828 -2.689682,0 -2.763571,0.07562 -2.763571,2.82839 0,2.752768 0.07389,2.82839 2.763571,2.82839 1.737497,0 1.906821,-0.03355 2.336101,-0.462829 z m 8.673729,0 c 0.430243,-0.430241 0.462828,-0.596786 0.462828,-2.365561 0,-1.768775 -0.03258,-1.93532 -0.462828,-2.365562 -0.42928,-0.429281 -0.598604,-0.462828 -2.336101,-0.462828 -2.689682,0 -2.763571,0.07562 -2.763571,2.82839 0,2.752768 0.07389,2.82839 2.763571,2.82839 1.737497,0 1.906821,-0.03355 2.336101,-0.462829 z m -8.571081,-8.373208 c 0.301244,-0.372311 0.36018,-0.755993 0.36018,-2.344839 0,-1.690943 -0.04505,-1.947646 -0.409986,-2.336103 -0.377443,-0.401769 -0.565226,-0.436411 -2.365564,-0.436411 -1.824877,0 -1.986506,0.03093 -2.418401,0.462828 -0.42268,0.422679 -0.462828,0.609712 -0.462828,2.156157 0,1.925136 0.187067,2.59293 0.798635,2.850951 0.234849,0.09908 1.261926,0.160445 2.282392,0.136359 1.69525,-0.04001 1.886477,-0.08222 2.215572,-0.488942 z m 8.673729,0 c 0.300493,-0.371381 0.36018,-0.755578 0.36018,-2.318424 0,-1.737497 -0.03355,-1.906821 -0.462828,-2.336101 -0.42928,-0.429282 -0.598604,-0.462828 -2.336101,-0.462828 -2.601717,0 -2.742498,0.123633 -2.825748,2.481541 -0.06894,1.952503 0.127632,2.718842 0.766533,2.988395 0.234849,0.09908 1.261926,0.160445 2.282392,0.136359 1.69525,-0.04001 1.886477,-0.08222 2.215572,-0.488942 z m 2.622892,-8.134302 V 15.725847 H 21.401483 2.4512712 v 0.754238 0.754237 H 21.401483 40.351695 Z M 12.2144,11.284011 c 0.411954,-0.288543 0.419075,-0.365646 0.419075,-4.5378195 0,-2.5651052 -0.07723,-4.3885855 -0.195194,-4.6090113 -0.124792,-0.233176 -0.394434,-0.3647226 -0.747603,-0.3647226 -0.353169,0 -0.622811,0.1315466 -0.747603,0.3647226 -0.117968,0.2204258 -0.195194,2.0439061 -0.195194,4.6090113 0,4.1721735 0.0071,4.2492765 0.419075,4.5378195 0.230491,0.161442 0.466166,0.293531 0.523722,0.293531 0.05756,0 0.293231,-0.132089 0.523722,-0.293531 z m 21.361555,0.09834 c 0.344885,-0.184576 0.364723,-0.438943 0.364723,-4.6762714 0,-4.7050842 -0.0393,-4.93362 -0.848517,-4.93362 -0.807445,0 -0.848517,0.233912 -0.848517,4.832506 0,3.7303724 0.04395,4.4239094 0.296308,4.6762714 0.347464,0.347464 0.540492,0.366303 1.036003,0.101114 z"
   id="path868"
   inkscape:connector-curvature="0" /></svg>