<?xml version="1.0" encoding="UTF-8" standalone="no"?>
<!-- Generator: Adobe Illustrator 17.0.0, SVG Export Plug-In . SVG Version: 6.00 Build 0)  -->

<svg
   xmlns:dc="http://purl.org/dc/elements/1.1/"
   xmlns:cc="http://creativecommons.org/ns#"
   xmlns:rdf="http://www.w3.org/1999/02/22-rdf-syntax-ns#"
   xmlns:svg="http://www.w3.org/2000/svg"
   xmlns="http://www.w3.org/2000/svg"
   xmlns:sodipodi="http://sodipodi.sourceforge.net/DTD/sodipodi-0.dtd"
   xmlns:inkscape="http://www.inkscape.org/namespaces/inkscape"
   version="1.1"
   id="Capa_1"
   x="0px"
   y="0px"
   width="47.5px"
   height="46px"
   viewBox="0 0 47.5 46"
   enable-background="new 0 0 47.5 46"
   xml:space="preserve"
   sodipodi:docname="cerrar-verde.svg"
   inkscape:version="0.92.4 5da689c313, 2019-01-14"><metadata
   id="metadata5874"><rdf:RDF><cc:Work
       rdf:about=""><dc:format>image/svg+xml</dc:format><dc:type
         rdf:resource="http://purl.org/dc/dcmitype/StillImage" /><dc:title></dc:title></cc:Work></rdf:RDF></metadata><defs
   id="defs5872" /><sodipodi:namedview
   pagecolor="#ffffff"
   bordercolor="#666666"
   borderopacity="1"
   objecttolerance="10"
   gridtolerance="10"
   guidetolerance="10"
   inkscape:pageopacity="0"
   inkscape:pageshadow="2"
   inkscape:window-width="1280"
   inkscape:window-height="968"
   id="namedview5870"
   showgrid="false"
   inkscape:zoom="16.847826"
   inkscape:cx="23.75"
   inkscape:cy="23"
   inkscape:window-x="0"
   inkscape:window-y="28"
   inkscape:window-maximized="1"
   inkscape:current-layer="Capa_1" />
<path
   fill="#5D5D5D"
   d="M28.526,23.602L45.47,6.658c0.954-0.954,0.954-2.501,0-3.455c-0.954-0.954-2.501-0.954-3.455,0  L24.776,20.441c-0.544,0.544-1.425,0.544-1.969,0L5.568,3.202c-0.954-0.954-2.501-0.954-3.455,0s-0.954,2.501,0,3.455l16.944,16.944  L2.113,40.546c-0.954,0.954-0.954,2.5,0,3.455c0.954,0.954,2.501,0.954,3.455,0l17.239-17.239c0.544-0.544,1.425-0.544,1.969,0  l17.239,17.239c0.954,0.954,2.501,0.954,3.455,0c0.954-0.954,0.954-2.5,0-3.455L28.526,23.602z"
   id="path5867"
   style="fill:#39c72f;fill-opacity:0.94117647" />
</svg>