<?xml version="1.0" encoding="UTF-8" standalone="no"?>
<!-- Generator: Adobe Illustrator 17.0.0, SVG Export Plug-In . SVG Version: 6.00 Build 0)  -->

<svg
   xmlns:dc="http://purl.org/dc/elements/1.1/"
   xmlns:cc="http://creativecommons.org/ns#"
   xmlns:rdf="http://www.w3.org/1999/02/22-rdf-syntax-ns#"
   xmlns:svg="http://www.w3.org/2000/svg"
   xmlns="http://www.w3.org/2000/svg"
   xmlns:sodipodi="http://sodipodi.sourceforge.net/DTD/sodipodi-0.dtd"
   xmlns:inkscape="http://www.inkscape.org/namespaces/inkscape"
   version="1.1"
   id="Capa_1"
   x="0px"
   y="0px"
   width="50px"
   height="50px"
   viewBox="0 0 50 50"
   enable-background="new 0 0 50 50"
   xml:space="preserve"
   sodipodi:docname="documentos-claro.svg"
   inkscape:version="0.92.4 5da689c313, 2019-01-14"><metadata
   id="metadata3592"><rdf:RDF><cc:Work
       rdf:about=""><dc:format>image/svg+xml</dc:format><dc:type
         rdf:resource="http://purl.org/dc/dcmitype/StillImage" /><dc:title /></cc:Work></rdf:RDF></metadata><defs
   id="defs3590" /><sodipodi:namedview
   pagecolor="#ffffff"
   bordercolor="#666666"
   borderopacity="1"
   objecttolerance="10"
   gridtolerance="10"
   guidetolerance="10"
   inkscape:pageopacity="0"
   inkscape:pageshadow="2"
   inkscape:window-width="1232"
   inkscape:window-height="968"
   id="namedview3588"
   showgrid="false"
   inkscape:zoom="4.72"
   inkscape:cx="25"
   inkscape:cy="25"
   inkscape:window-x="48"
   inkscape:window-y="28"
   inkscape:window-maximized="1"
   inkscape:current-layer="g3585" />
<g
   id="g3585">
	<circle
   fill="#5D5D5D"
   cx="16.257"
   cy="23.077"
   r="4.182"
   id="circle3579"
   style="fill:#aaaaaa;fill-opacity:1" />
	<g
   id="g3583">
		<path
   fill="#5D5D5D"
   d="M3.96,19.805l0.893-0.245v-6.693c0-0.573,0.464-1.038,1.037-1.038h27.13l8.043-2.207    c0.55-0.151,1.128,0.172,1.268,0.725l0.377,1.482h1.912c0.573,0,1.037,0.465,1.037,1.038v10.658l1.697,6.729    c0.144,0.572-0.235,1.112-0.803,1.268l-0.893,0.245v1.851c0,0.573-0.465,1.038-1.037,1.038h-2.024l-0.227,3.354    c-0.04,0.586-0.544,0.997-1.127,0.963l-17.946-1.068L9.447,41.704c-0.55,0.151-1.129-0.172-1.268-0.725l-1.596-6.324H5.891    c-0.573,0-1.037-0.464-1.037-1.038v-5.82l-1.697-6.724C3.012,20.5,3.392,19.961,3.96,19.805L3.96,19.805z M26.292,16.498h13.832    v2.075H26.292V16.498L26.292,16.498z M26.292,27.911h10.893v2.075H26.292V27.911L26.292,27.911z M26.292,24.107h13.832v2.075    H26.292V24.107L26.292,24.107z M26.292,20.302h13.832v2.075H26.292V20.302L26.292,20.302z M40.519,34.655h-5.387l-5.626,1.544    l10.865,0.647L40.519,34.655L40.519,34.655z M27.324,34.655H8.718l1.204,4.776L27.324,34.655L27.324,34.655z M43.582,13.905H6.928    V32.58h36.654V13.905L43.582,13.905z"
   id="path3581"
   style="fill:#aaaaaa;fill-opacity:1" />
	</g>
</g>
</svg>